\relax 
\providecommand\hyper@newdestlabel[2]{}
\providecommand\HyperFirstAtBeginDocument{\AtBeginDocument}
\HyperFirstAtBeginDocument{\ifx\hyper@anchor\@undefined
\global\let\oldcontentsline\contentsline
\gdef\contentsline#1#2#3#4{\oldcontentsline{#1}{#2}{#3}}
\global\let\oldnewlabel\newlabel
\gdef\newlabel#1#2{\newlabelxx{#1}#2}
\gdef\newlabelxx#1#2#3#4#5#6{\oldnewlabel{#1}{{#2}{#3}}}
\AtEndDocument{\ifx\hyper@anchor\@undefined
\let\contentsline\oldcontentsline
\let\newlabel\oldnewlabel
\fi}
\fi}
\global\let\hyper@last\relax 
\gdef\HyperFirstAtBeginDocument#1{#1}
\providecommand*\HyPL@Entry[1]{}
\HyPL@Entry{0<</S/D>>}
\@writefile{toc}{\contentsline {subsubsection}{\numberline {0.0.1}Qustion I}{1}{subsubsection.0.0.1}\protected@file@percent }
\@writefile{toc}{\contentsline {paragraph}{1.Simulate a dataset of size N = 400 from the model for a given set of parameter values($\beta _1$, $\beta _2$)}{1}{section*.1}\protected@file@percent }
\@writefile{toc}{\contentsline {paragraph}{2. Code the log likelihood function as a function of the parameters ($\beta _1$, $\beta _2$)}{1}{section*.2}\protected@file@percent }
